{
  "companyInfo": {
    "companyName": "Price Group",
    "companyMotto": "virtual e-enable e-tailers",
    "companyEst": "2019-09-30T02:42:20.825Z"
  },
  "employees": [
    {
      "id": "a4f3234f-08bf-4a60-b947-0a9ac2a3fc73",
      "avatar": "https://s3.amazonaws.com/uifaces/faces/twitter/eugeneeweb/128.jpg",
      "firstName": "Michael",
      "lastName": "Reid",
      "jobTitle": "Customer Branding Assistant",
      "age": 39,
      "bio": "Non impedit vitae beatae commodi iusto. Iure vel quis unde ab eaque sunt eos incidunt commodi. Ut sapiente nisi. Autem modi repellat. Hic aut et magni voluptatem et libero voluptatibus dignissimos.",
      "dateJoined": "2013-01-27T12:35:38.112Z"
    },
    {
      "id": "9cde0557-21ee-4a54-9372-8a290e3a9305",
      "avatar": "https://s3.amazonaws.com/uifaces/faces/twitter/alessandroribe/128.jpg",
      "firstName": "Mia",
      "lastName": "Christiansen",
      "jobTitle": "Principal Data Assistant",
      "age": 56,
      "bio": "Excepturi voluptate quae. Velit aperiam aut debitis. Asperiores ipsam nulla fugit aut consequatur at repellendus reprehenderit eveniet. In maiores rerum commodi consequatur unde. Illo odio dolore ipsa quia dignissimos aliquam.",
      "dateJoined": "2016-01-19T17:27:13.577Z"
    },
    {
      "id": "beb6c81d-5ddd-411a-be32-6da36b0bf590",
      "avatar": "https://s3.amazonaws.com/uifaces/faces/twitter/belyaev_rs/128.jpg",
      "firstName": "Olivia",
      "lastName": "Harris",
      "jobTitle": "Regional Usability Analyst",
      "age": 38,
      "bio": "Quam deserunt eos. Esse in in voluptas corrupti sunt voluptas eius nemo. Nam consequatur aliquid et et at est voluptatem. Et omnis necessitatibus aperiam sed ut suscipit sit et. Dolorem in qui ut voluptatem amet unde dolores fugiat et.",
      "dateJoined": "2014-08-28T03:33:13.116Z"
    },
    {
      "id": "8ad53db7-5230-4dcc-9203-23620047840c",
      "avatar": "https://s3.amazonaws.com/uifaces/faces/twitter/coderdiaz/128.jpg",
      "firstName": "Harrison",
      "lastName": "Jackson",
      "jobTitle": "Central Data Executive",
      "age": 30,
      "bio": "Eum perspiciatis dicta ipsum repellat et asperiores. Neque et hic et quo incidunt. Sunt dolorum et laudantium hic rerum minima ipsum quam.",
      "dateJoined": "2015-02-22T07:31:54.913Z"
    },
    {
      "id": "2fa3d1d7-f547-45e0-a474-6cb079f0799d",
      "avatar": "https://s3.amazonaws.com/uifaces/faces/twitter/lepinski/128.jpg",
      "firstName": "Alice",
      "lastName": "Khan",
      "jobTitle": "Future Security Strategist",
      "age": 19,
      "bio": "Inventore tenetur eaque dicta qui repellendus quod deserunt a. Reiciendis eligendi nesciunt repudiandae aut. Quo incidunt veritatis est earum praesentium ab eligendi.",
      "dateJoined": "2013-11-02T19:40:16.614Z"
    },
    {
      "id": "0f17e6b3-ecca-45e0-928d-1bd44910f8b9",
      "avatar": "https://s3.amazonaws.com/uifaces/faces/twitter/bergmartin/128.jpg",
      "firstName": "Thomas",
      "lastName": "Smyth",
      "jobTitle": "District Response Coordinator",
      "age": 17,
      "bio": "Accusamus est voluptatibus laudantium incidunt quibusdam maxime accusamus nihil similique. Numquam nihil esse laborum autem modi. Quis maxime repellendus exercitationem rerum.",
      "dateJoined": "2017-04-20T01:17:59.638Z"
    },
    {
      "id": "d29fb897-6f84-4ebb-88ad-d3ebff61345f",
      "avatar": "https://s3.amazonaws.com/uifaces/faces/twitter/geneseleznev/128.jpg",
      "firstName": "Owen",
      "lastName": "Emard",
      "jobTitle": "Internal Program Manager",
      "age": 37,
      "bio": "Dignissimos repellat natus modi cumque aliquam. Rem provident iure aspernatur quod voluptates officia aut et sed. Recusandae dignissimos tenetur quisquam pariatur repellat commodi sit.",
      "dateJoined": "2012-08-10T07:43:39.644Z"
    },
    {
      "id": "ad257597-f3bd-4d90-8b74-a454019b1d57",
      "avatar": "https://s3.amazonaws.com/uifaces/faces/twitter/fabbianz/128.jpg",
      "firstName": "Lucas",
      "lastName": "Grady",
      "jobTitle": "Future Response Supervisor",
      "age": 50,
      "bio": "Et laboriosam deleniti atque rerum ut eos odio. Omnis recusandae voluptatum id. Qui similique dolorum earum. Quo blanditiis molestias veniam. Aliquam assumenda facere qui fugiat. Tenetur quam autem tempore odio blanditiis nihil totam.",
      "dateJoined": "2017-04-15T23:49:24.964Z"
    },
    {
      "id": "48a1e957-e7be-418c-8cea-c7742179817e",
      "avatar": "https://s3.amazonaws.com/uifaces/faces/twitter/ma_tiax/128.jpg",
      "firstName": "Gemma",
      "lastName": "Ritchie",
      "jobTitle": "Lead Identity Director",
      "age": 40,
      "bio": "Magnam voluptatibus ea a eos. A rerum et reiciendis reiciendis alias aliquid. Omnis dignissimos illo iste adipisci assumenda cupiditate neque numquam.",
      "dateJoined": "2017-03-08T02:48:45.222Z"
    },
    {
      "id": "9b5e5f6b-0dcc-4645-a7bc-cf6551d444d3",
      "avatar": "https://s3.amazonaws.com/uifaces/faces/twitter/BillSKenney/128.jpg",
      "firstName": "Elizabeth",
      "lastName": "Rice",
      "jobTitle": "Dynamic Mobility Engineer",
      "age": 67,
      "bio": "Et accusamus voluptatem voluptatem sint. Id perferendis rerum modi ut sit consequuntur aperiam quod. Voluptatem ea omnis sit quas iusto aliquid molestiae ut est. Error saepe libero soluta perferendis sint.",
      "dateJoined": "2013-07-01T14:49:52.255Z"
    },
    {
      "id": "e61dcb1d-07a1-4aa5-9e7c-46b2bbbccd7e",
      "avatar": "https://s3.amazonaws.com/uifaces/faces/twitter/panchajanyag/128.jpg",
      "firstName": "Gabriel",
      "lastName": "Russel",
      "jobTitle": "Internal Solutions Officer",
      "age": 51,
      "bio": "Hic et debitis quidem impedit voluptas. Voluptatem sapiente sunt et quia voluptas illum perspiciatis esse. Asperiores rerum eligendi praesentium quo sapiente quos aut aut. Sequi porro reiciendis corporis similique explicabo. Et delectus molestias non ratione iure accusamus corrupti non.",
      "dateJoined": "2013-01-24T13:26:48.165Z"
    },
    {
      "id": "74f6f9c7-3be7-41fc-837a-b9ffe7e45419",
      "avatar": "https://s3.amazonaws.com/uifaces/faces/twitter/edobene/128.jpg",
      "firstName": "Nicholas",
      "lastName": "Morgan",
      "jobTitle": "Dynamic Paradigm Designer",
      "age": 47,
      "bio": "Quibusdam laudantium nobis placeat enim. Quia sit ratione nesciunt. Dolore sit sit aliquam rerum sint debitis dolores.",
      "dateJoined": "2019-09-29T05:36:58.333Z"
    }
  ]
}
